[
  {
    "id": 1,
    "name": "John Doe",
    "email": "john.doe@appsemble.nl",
    "status": "admin"
  },
  {
    "id": 2,
    "name": "Jane Doe",
    "email": "jane.doe@appsemble.nl",
    "status": "manager"
  },
  {
    "id": 3,
    "name": "John Smith",
    "email": "john.smith@appsemble.nl",
    "status": "member"
  },
  {
    "id": 4,
    "name": "Jane Smith",
    "email": "jane.smith@appsemble.nl",
    "status": "member"
  }
]
