[
  {
    "workplaceName": "XYZ.1A",
    "workplaceCode": "XYZ.OP.QR.1A",
    "capacity": 5,
    "workplaceType": "Routine",
    "deskType": "Open / Standaard",
    "maintenance": []
  },
  {
    "workplaceName": "DEF.2B",
    "workplaceCode": "DEF.GH.IJ.2B",
    "capacity": 10,
    "workplaceType": "Samenwerken",
    "deskType": "Cockpit / Zit-Sta",
    "maintenance": [
      {
        "start": "2024-03-14T09:00:00Z",
        "end": "2024-03-14T10:00:00Z",
        "capacity": 5
      }
    ]
  },
  {
    "workplaceName": "ABC.3C",
    "workplaceCode": "ABC.DE.FG.3C",
    "capacity": 4,
    "workplaceType": "Focus",
    "deskType": "Open / Zit-Sta",
    "maintenance": []
  },
  {
    "workplaceName": "LMN.4D",
    "workplaceCode": "LMN.OP.QR.4D",
    "capacity": 6,
    "workplaceType": "Routine",
    "deskType": "Cockpit / Standaard",
    "maintenance": []
  },
  {
    "workplaceName": "PQR.5E",
    "workplaceCode": "PQR.ST.UV.5E",
    "capacity": 20,
    "workplaceType": "Samenwerken",
    "deskType": "Open / Zit-Sta",
    "maintenance": []
  },
  {
    "workplaceName": "GHI.6F",
    "workplaceCode": "GHI.JK.LM.6F",
    "capacity": 3,
    "workplaceType": "Focus",
    "deskType": "Cockpit / Zit-Sta",
    "maintenance": []
  },
  {
    "workplaceName": "JKL.7G",
    "workplaceCode": "JKL.MN.OP.7G",
    "capacity": 10,
    "workplaceType": "Routine",
    "deskType": "Cockpit / Standaard",
    "maintenance": [
      {
        "start": "2024-03-15T09:00:00Z",
        "end": "2024-03-15T10:00:00Z",
        "capacity": 5
      }
    ]
  },
  {
    "workplaceName": "QRS.8H",
    "workplaceCode": "QRS.TU.VW.8H",
    "capacity": 7,
    "workplaceType": "Samenwerken",
    "deskType": "Open / Zit-Sta",
    "maintenance": []
  },
  {
    "workplaceName": "UVW.9I",
    "workplaceCode": "UVW.XY.ZA.9I",
    "capacity": 8,
    "workplaceType": "Focus",
    "deskType": "Open / Standaard",
    "maintenance": []
  },
  {
    "workplaceName": "STU.10J",
    "workplaceCode": "STU.VW.XY.10J",
    "capacity": 1,
    "workplaceType": "Routine",
    "deskType": "Cockpit / Zit-Sta",
    "maintenance": []
  },
  {
    "workplaceName": "STO.12F",
    "workplaceCode": "STO.VW.XY.12F",
    "capacity": 5,
    "workplaceType": "Focus",
    "deskType": "Cockpit / Standaard",
    "maintenance": []
  }
]
